{
	"info": {
		"_postman_id": "d4438f49-7ebb-418c-9d28-40e152d0b388",
		"name": "GIC API",
		"schema": "https://schema.getpostman.com/json/collection/v2.1.0/collection.json"
	},
	"item": [
		{
			"name": "GIC Direct GET Coffee Hot",
			"request": {
				"method": "GET",
				"header": [],
				"url": {
					"raw": "https://api.sampleapis.com/coffee/hot",
					"protocol": "https",
					"host": [
						"api",
						"sampleapis",
						"com"
					],
					"path": [
						"coffee",
						"hot"
					]
				}
			},
			"response": []
		},
		{
			"name": "GIC Direct GET Beers Ale",
			"request": {
				"method": "GET",
				"header": [],
				"url": {
					"raw": "https://api.sampleapis.com/beers/ale",
					"protocol": "https",
					"host": [
						"api",
						"sampleapis",
						"com"
					],
					"path": [
						"beers",
						"ale"
					]
				}
			},
			"response": []
		},
		{
			"name": "GIC Direct GET Coffee Img",
			"request": {
				"method": "GET",
				"header": [],
				"url": {
					"raw": "https://api.sampleapis.com/beers/ale",
					"protocol": "https",
					"host": [
						"api",
						"sampleapis",
						"com"
					],
					"path": [
						"beers",
						"ale"
					]
				}
			},
			"response": []
		},
		{
			"name": "GIC GET Drinks w/ Coffee Type",
			"request": {
				"method": "GET",
				"header": [],
				"url": {
					"raw": "{{URL}}/drinks?type=coffee",
					"host": [
						"{{URL}}"
					],
					"path": [
						"drinks"
					],
					"query": [
						{
							"key": "type",
							"value": "coffee"
						}
					]
				}
			},
			"response": []
		},
		{
			"name": "GIC GET Drinks w/ Beers Type",
			"request": {
				"method": "GET",
				"header": [],
				"url": {
					"raw": "{{URL}}/drinks?type=beers",
					"host": [
						"{{URL}}"
					],
					"path": [
						"drinks"
					],
					"query": [
						{
							"key": "type",
							"value": "beers"
						}
					]
				}
			},
			"response": []
		},
		{
			"name": "GIC GET Drinks w/ Invalid Type",
			"request": {
				"method": "GET",
				"header": [],
				"url": {
					"raw": "{{URL}}/drinks?type=friedrice",
					"host": [
						"{{URL}}"
					],
					"path": [
						"drinks"
					],
					"query": [
						{
							"key": "type",
							"value": "friedrice"
						}
					]
				}
			},
			"response": []
		},
		{
			"name": "GIC GET Drinks w/ Empty Type",
			"request": {
				"method": "GET",
				"header": [],
				"url": {
					"raw": "{{URL}}/drinks",
					"host": [
						"{{URL}}"
					],
					"path": [
						"drinks"
					]
				}
			},
			"response": []
		},
		{
			"name": "GIC GET ALL Employees",
			"request": {
				"method": "GET",
				"header": [],
				"url": {
					"raw": "{{URL}}/cafe/employees",
					"host": [
						"{{URL}}"
					],
					"path": [
						"cafe",
						"employees"
					]
				}
			},
			"response": []
		},
		{
			"name": "GIC GET Cafe By Location",
			"request": {
				"method": "GET",
				"header": [],
				"url": {
					"raw": "{{URL}}/cafes?location=Tampines Hub",
					"host": [
						"{{URL}}"
					],
					"path": [
						"cafes"
					],
					"query": [
						{
							"key": "location",
							"value": "Tampines Hub"
						}
					]
				}
			},
			"response": []
		},
		{
			"name": "GIC POST NEW Employee",
			"request": {
				"method": "POST",
				"header": [],
				"body": {
					"mode": "raw",
					"raw": "{\r\n    \"name\": \"Sidney\",\r\n    \"days_worked\": 900,\r\n    \"cafe\": \"Musou Cafe\"\r\n}",
					"options": {
						"raw": {
							"language": "json"
						}
					}
				},
				"url": {
					"raw": "{{URL}}/cafe/employee",
					"host": [
						"{{URL}}"
					],
					"path": [
						"cafe",
						"employee"
					]
				}
			},
			"response": []
		},
		{
			"name": "GIC POST NEW Cafe",
			"request": {
				"method": "POST",
				"header": [],
				"body": {
					"mode": "raw",
					"raw": "{\r\n    \"name\": \"New Cafe\",\r\n    \"description\": \"TokiDoki Style\",\r\n    \"logo\": \"Logo 4\",\r\n    \"location\": \"Yishun Road 123\"\r\n}",
					"options": {
						"raw": {
							"language": "json"
						}
					}
				},
				"url": {
					"raw": "{{URL}}/cafe",
					"host": [
						"{{URL}}"
					],
					"path": [
						"cafe"
					]
				}
			},
			"response": []
		}
	]
}